Lab 7: Machine Learning 1
…
# Convert data to long format for ggplot with `pivot_longer()`
x_long <- x |> 
          tibble::rownames_to_column("Food") |> 
          pivot_longer(cols = -Food, 
                       names_to = "Country", 
                       values_to = "Consumption")

print(dim(x_long))

[1] 68  3

x_long

# A tibble: 68 × 3
   Food            Country   Consumption
   <chr>           <chr>           <int>
 1 "Cheese"        England           105
 2 "Cheese"        Wales             103
 3 "Cheese"        Scotland          103
 4 "Cheese"        N.Ireland          66
 5 "Carcass_meat " England           245
 6 "Carcass_meat " Wales             227
 7 "Carcass_meat " Scotland          242
 8 "Carcass_meat " N.Ireland         267
 9 "Other_meat "   England           685
10 "Other_meat "   Wales             803
# ℹ 58 more rows
…
