…
print(dim(x_long))
```

    [1] 68  3

``` r
x_long
```

    # A tibble: 68 × 3
       Food            Country   Consumption
       <chr>           <chr>           <int>
     1 "Cheese"        England           105
     2 "Cheese"        Wales             103
     3 "Cheese"        Scotland          103
     4 "Cheese"        N.Ireland          66
     5 "Carcass_meat " England           245
     6 "Carcass_meat " Wales             227
     7 "Carcass_meat " Scotland          242
     8 "Carcass_meat " N.Ireland         267
     9 "Other_meat "   England           685
    10 "Other_meat "   Wales             803
    # ℹ 58 more rows
…
